…
``` r

library(readxl)
library(here)
library(janitor)
library(dplyr)

sercotec <- read_xlsx(
  here("data-raw/ejemplo_sercotec_beneficiarios.xlsx")) |> 
  clean_names() |> 
  rename(año = 1)

sercotec
#> # A tibble: 91,258 × 9
#>      año direccion_regional instrumento programa tipo_beneficiario sexo_contacto
#>    <dbl> <chr>              <chr>       <chr>    <chr>             <chr>        
#>  1  2024 Región de Tarapacá Digitaliza… Digital… Rut Extendido     Femenino     
#>  2  2024 Región de Tarapacá Digitaliza… Digital… Rut Extendido     Femenino     
#>  3  2024 Región de Tarapacá Digitaliza… Digital… Rut Extendido     Femenino     
#>  4  2024 Región de Tarapacá Digitaliza… Digital… Empresa Jurídica  Femenino     
#>  5  2024 Región de Tarapacá Digitaliza… Digital… Rut Extendido     Femenino     
#>  6  2024 Región de Tarapacá Digitaliza… Digital… Rut Extendido     Femenino     
#>  7  2024 Región de Tarapacá Digitaliza… Digital… Empresa Jurídica  Femenino     
#>  8  2024 Región de Tarapacá Digitaliza… Digital… Rut Extendido     Masculino    
#>  9  2024 Región de Tarapacá Digitaliza… Digital… Empresa Jurídica  Masculino    
#> 10  2024 Región de Tarapacá Digitaliza… Digital… Rut Extendido     Masculino    
#> # ℹ 91,248 more rows
#> # ℹ 3 more variables: comuna_beneficiario <chr>,
#> #   actividad_economica_postulacion <chr>,
#> #   actividad_economica_postulante_beneficiario <chr>
```
…
Finalmente agrupamos por comuna y sexo para obtener el conteo de
personas beneficiarias:

``` r

sercotec <- sercotec |>
  group_by(comuna_beneficiario, sexo_contacto) |> 
  count() |> 
  ungroup()

sercotec
#> # A tibble: 958 × 3
#>    comuna_beneficiario sexo_contacto     n
#>    <chr>               <chr>         <int>
#>  1 Aisén               Femenino        440
#>  2 Aisén               Masculino       214
#>  3 Aisén               No Informa        4
#>  4 Algarrobo           Femenino        102
#>  5 Algarrobo           Masculino        40
#>  6 Algarrobo           No Informa        2
#>  7 Alhué               Femenino         41
#>  8 Alhué               Masculino        12
#>  9 Alto Biobío         Femenino         11
#> 10 Alto Biobío         Masculino         9
#> # ℹ 948 more rows
```
…
Filtramos las filas sin comuna identificada, eliminamos la columna de
nombres de comunas originales, y verificamos el resultado:

``` r

sercotec_limpio <- sercotec_limpio |> 
  filter(!is.na(nombre_comuna)) |> 
  select(-comuna_beneficiario)

sercotec_limpio
#> # A tibble: 951 × 3
#>    sexo_contacto     n nombre_comuna
#>    <chr>         <int> <chr>        
#>  1 Femenino        440 Aysén        
#>  2 Masculino       214 Aysén        
#>  3 No Informa        4 Aysén        
#>  4 Femenino        102 Algarrobo    
#>  5 Masculino        40 Algarrobo    
#>  6 No Informa        2 Algarrobo    
#>  7 Femenino         41 Alhué        
#>  8 Masculino        12 Alhué        
#>  9 Femenino         11 Alto Biobío  
#> 10 Masculino         9 Alto Biobío  
#> # ℹ 941 more rows
```
…
``` r

sercotec_limpio <- sercotec_limpio |> 
  mutate(nombre_region = ubicar_comunas(nombre_comuna)) |> 
  mutate(codigo_comuna = as_codigo_comuna(nombre_comuna)) |> 
  relocate(codigo_comuna, nombre_region, .after = nombre_comuna)

sercotec_limpio
#> # A tibble: 951 × 5
#>    sexo_contacto     n nombre_comuna codigo_comuna nombre_region                
#>    <chr>         <int> <chr>                 <dbl> <chr>                        
#>  1 Femenino        440 Aysén                 11201 Aysén del General Carlos Ibá…
#>  2 Masculino       214 Aysén                 11201 Aysén del General Carlos Ibá…
#>  3 No Informa        4 Aysén                 11201 Aysén del General Carlos Ibá…
#>  4 Femenino        102 Algarrobo              5602 Valparaíso                   
#>  5 Masculino        40 Algarrobo              5602 Valparaíso                   
#>  6 No Informa        2 Algarrobo              5602 Valparaíso                   
#>  7 Femenino         41 Alhué                 13502 Metropolitana de Santiago    
#>  8 Masculino        12 Alhué                 13502 Metropolitana de Santiago    
#>  9 Femenino         11 Alto Biobío            8314 Biobío                       
#> 10 Masculino         9 Alto Biobío            8314 Biobío                       
#> # ℹ 941 more rows
```

O bien, usamos
[`territorial::contextualizar()`](https://bastianolea.github.io/territorial/reference/contextualizar.md)
para agregar todas las columnas de identificación territorial a partir
del nombre de comuna:

``` r

sercotec_limpio |> 
  contextualizar(nombre_comuna)
#> ! más de una variable territorial detectada en los datos! descartando todas excepto `nombre_comuna`.
#> ℹ columnas agregadas: codigo_region, nombre_region, codigo_provincia, nombre_provincia y codigo_comuna
#> # A tibble: 951 × 8
#>    codigo_region nombre_region   codigo_provincia nombre_provincia codigo_comuna
#>            <dbl> <chr>                      <dbl> <chr>                    <dbl>
#>  1            11 Aysén del Gene…              112 Aysén                    11201
#>  2            11 Aysén del Gene…              112 Aysén                    11201
#>  3            11 Aysén del Gene…              112 Aysén                    11201
#>  4             5 Valparaíso                    56 San Antonio               5602
#>  5             5 Valparaíso                    56 San Antonio               5602
#>  6             5 Valparaíso                    56 San Antonio               5602
#>  7            13 Metropolitana …              135 Melipilla                13502
#>  8            13 Metropolitana …              135 Melipilla                13502
#>  9             8 Biobío                        83 Biobío                    8314
#> 10             8 Biobío                        83 Biobío                    8314
#> # ℹ 941 more rows
#> # ℹ 3 more variables: nombre_comuna <chr>, sexo_contacto <chr>, n <int>
```
…
