…
Primero cargamos los datos:

``` r

library(readxl)
library(here)
#> here() starts at /home/runner/work/territorial/territorial

servel <- read_xlsx(
  here("data-raw/ejemplo_servel_partidos.xlsx"),
  skip = 1)

servel
#> # A tibble: 12,091 × 19
#>    `,`        REGION COMUNA SEXO  `0-19` `20-24` `25-29` `30-34` `35-39` `40-44`
#>    <chr>      <chr>  <chr>  <chr>  <dbl>   <dbl>   <dbl>   <dbl>   <dbl>   <dbl>
#>  1 RENOVACIO… DE AN… ANTOF… M          0      10      17      39      36      45
#>  2 RENOVACIO… DE AN… ANTOF… V          1       5      19      31      43      39
#>  3 RENOVACIO… DE AN… CALAMA M          0       2      12      13      11      11
#>  4 RENOVACIO… DE AN… CALAMA V          0       0      16      13      11      16
#>  5 RENOVACIO… DE AN… MARIA… M          0       2       0       3       1       2
#>  6 RENOVACIO… DE AN… MARIA… V          0       1       2       1       0       0
#>  7 RENOVACIO… DE AN… MEJIL… M          0       0       0       0       0       0
#>  8 RENOVACIO… DE AN… MEJIL… V          0       0       1       0       2       1
#>  9 RENOVACIO… DE AN… OLLAG… M          0       0       1       0       0       0
#> 10 RENOVACIO… DE AN… OLLAG… V          0       1       0       0       0       0
#> # ℹ 12,081 more rows
#> # ℹ 9 more variables: `45-49` <dbl>, `50-54` <dbl>, `55-59` <dbl>,
#> #   `60-64` <dbl>, `65-69` <dbl>, `70-74` <dbl>, `75-79` <dbl>, `80+` <dbl>,
#> #   TOTAL <dbl>
```
Realizamos una transformación de los datos para que pasen a desde
columnas hacia filas:

``` r

library(tidyr)

servel <- servel |> 
  pivot_longer(
    cols = where(is.numeric),
    names_to = "edad", 
    values_to = "afiliados")

servel
#> # A tibble: 181,365 × 6
#>    `,`                 REGION         COMUNA      SEXO  edad  afiliados
#>    <chr>               <chr>          <chr>       <chr> <chr>     <dbl>
#>  1 RENOVACION NACIONAL DE ANTOFAGASTA ANTOFAGASTA M     0-19          0
#>  2 RENOVACION NACIONAL DE ANTOFAGASTA ANTOFAGASTA M     20-24        10
#>  3 RENOVACION NACIONAL DE ANTOFAGASTA ANTOFAGASTA M     25-29        17
#>  4 RENOVACION NACIONAL DE ANTOFAGASTA ANTOFAGASTA M     30-34        39
#>  5 RENOVACION NACIONAL DE ANTOFAGASTA ANTOFAGASTA M     35-39        36
#>  6 RENOVACION NACIONAL DE ANTOFAGASTA ANTOFAGASTA M     40-44        45
#>  7 RENOVACION NACIONAL DE ANTOFAGASTA ANTOFAGASTA M     45-49        39
#>  8 RENOVACION NACIONAL DE ANTOFAGASTA ANTOFAGASTA M     50-54        37
#>  9 RENOVACION NACIONAL DE ANTOFAGASTA ANTOFAGASTA M     55-59        43
#> 10 RENOVACION NACIONAL DE ANTOFAGASTA ANTOFAGASTA M     60-64        22
#> # ℹ 181,355 more rows
```

Ahora realizamos una limpieza de los nombres de las columnas:

``` r

library(dplyr)
library(janitor)

servel <- servel |> 
  clean_names() |> 
  rename(partido = 1)

servel
#> # A tibble: 181,365 × 6
#>    partido             region         comuna      sexo  edad  afiliados
#>    <chr>               <chr>          <chr>       <chr> <chr>     <dbl>
#>  1 RENOVACION NACIONAL DE ANTOFAGASTA ANTOFAGASTA M     0-19          0
#>  2 RENOVACION NACIONAL DE ANTOFAGASTA ANTOFAGASTA M     20-24        10
#>  3 RENOVACION NACIONAL DE ANTOFAGASTA ANTOFAGASTA M     25-29        17
#>  4 RENOVACION NACIONAL DE ANTOFAGASTA ANTOFAGASTA M     30-34        39
#>  5 RENOVACION NACIONAL DE ANTOFAGASTA ANTOFAGASTA M     35-39        36
#>  6 RENOVACION NACIONAL DE ANTOFAGASTA ANTOFAGASTA M     40-44        45
#>  7 RENOVACION NACIONAL DE ANTOFAGASTA ANTOFAGASTA M     45-49        39
#>  8 RENOVACION NACIONAL DE ANTOFAGASTA ANTOFAGASTA M     50-54        37
#>  9 RENOVACION NACIONAL DE ANTOFAGASTA ANTOFAGASTA M     55-59        43
#> 10 RENOVACION NACIONAL DE ANTOFAGASTA ANTOFAGASTA M     60-64        22
#> # ℹ 181,355 more rows
```
…
- Paihuano y Marchihue fueron limpiadas a pesar de estar escritas
  distinto
- Cabo de Hornos fue limpiada por tratarse de un caso especial, que
  generalmente viene muy mal escrito (le ponen “Ex-Navarino” o similares
  al final, dificultando limpieza automatizada
- La comuna “Fuera del país” no fue convertida, por la obviedad de no
  tratarse de una comuna

Ahora vemos cómo quedaron los datos:

``` r

servel_limpio
#> # A tibble: 12,091 × 6
#>    region         comuna      partido             sexo  afiliados nombre_comuna
#>    <chr>          <chr>       <chr>               <chr>     <dbl> <chr>        
#>  1 DE ANTOFAGASTA ANTOFAGASTA RENOVACION NACIONAL M           748 Antofagasta  
#>  2 DE ANTOFAGASTA ANTOFAGASTA RENOVACION NACIONAL V           676 Antofagasta  
#>  3 DE ANTOFAGASTA CALAMA      RENOVACION NACIONAL M           294 Calama       
#>  4 DE ANTOFAGASTA CALAMA      RENOVACION NACIONAL V           288 Calama       
#>  5 DE ANTOFAGASTA MARIA ELENA RENOVACION NACIONAL M            38 María Elena  
#>  6 DE ANTOFAGASTA MARIA ELENA RENOVACION NACIONAL V            24 María Elena  
#>  7 DE ANTOFAGASTA MEJILLONES  RENOVACION NACIONAL M            10 Mejillones   
#>  8 DE ANTOFAGASTA MEJILLONES  RENOVACION NACIONAL V            20 Mejillones   
#>  9 DE ANTOFAGASTA OLLAGUE     RENOVACION NACIONAL M             8 Ollagüe      
#> 10 DE ANTOFAGASTA OLLAGUE     RENOVACION NACIONAL V            12 Ollagüe      
#> # ℹ 12,081 more rows
```

Queda limpiar las regiones. Primero las validamos con
[`validar_regiones()`](https://bastianolea.github.io/territorial/reference/validar_regiones.md):

``` r

servel_limpio |> 
  validar_regiones(region)
#> ! mayúsculas: 12091 casos de regiones escritas en mayúsculas
#> ! ortografía: 3205 casos de regiones escritas sin tilde
#> # A tibble: 12,091 × 6
#>    region         comuna      partido             sexo  afiliados nombre_comuna
#>    <chr>          <chr>       <chr>               <chr>     <dbl> <chr>        
#>  1 DE ANTOFAGASTA ANTOFAGASTA RENOVACION NACIONAL M           748 Antofagasta  
#>  2 DE ANTOFAGASTA ANTOFAGASTA RENOVACION NACIONAL V           676 Antofagasta  
#>  3 DE ANTOFAGASTA CALAMA      RENOVACION NACIONAL M           294 Calama       
#>  4 DE ANTOFAGASTA CALAMA      RENOVACION NACIONAL V           288 Calama       
#>  5 DE ANTOFAGASTA MARIA ELENA RENOVACION NACIONAL M            38 María Elena  
#>  6 DE ANTOFAGASTA MARIA ELENA RENOVACION NACIONAL V            24 María Elena  
#>  7 DE ANTOFAGASTA MEJILLONES  RENOVACION NACIONAL M            10 Mejillones   
#>  8 DE ANTOFAGASTA MEJILLONES  RENOVACION NACIONAL V            20 Mejillones   
#>  9 DE ANTOFAGASTA OLLAGUE     RENOVACION NACIONAL M             8 Ollagüe      
#> 10 DE ANTOFAGASTA OLLAGUE     RENOVACION NACIONAL V            12 Ollagüe      
#> # ℹ 12,081 more rows
```
…
``` r

servel_limpio <- servel_limpio |> 
  contextualizar(nombre_comuna) |> # agregar columnas territoriales nuevas
  select(-region, -comuna) # remover columnas originales
#> ℹ columnas agregadas: codigo_region, nombre_region, codigo_provincia, nombre_provincia y codigo_comuna
```

``` r

servel_limpio
#> # A tibble: 12,091 × 9
#>    codigo_region nombre_region codigo_provincia nombre_provincia codigo_comuna
#>            <dbl> <chr>                    <dbl> <chr>                    <dbl>
#>  1             2 Antofagasta                 21 Antofagasta               2101
#>  2             2 Antofagasta                 21 Antofagasta               2101
#>  3             2 Antofagasta                 22 El Loa                    2201
#>  4             2 Antofagasta                 22 El Loa                    2201
#>  5             2 Antofagasta                 23 Tocopilla                 2302
#>  6             2 Antofagasta                 23 Tocopilla                 2302
#>  7             2 Antofagasta                 21 Antofagasta               2102
#>  8             2 Antofagasta                 21 Antofagasta               2102
#>  9             2 Antofagasta                 22 El Loa                    2202
#> 10             2 Antofagasta                 22 El Loa                    2202
#> # ℹ 12,081 more rows
#> # ℹ 4 more variables: nombre_comuna <chr>, partido <chr>, sexo <chr>,
#> #   afiliados <dbl>
…
