…
``` r

library(territorial)
library(dplyr)
```

``` r

territorial::localidades
#> # A tibble: 29,256 × 6
#>    codigo_comuna localidad              tipo        subtipo habitantes viviendas
#>            <dbl> <chr>                  <chr>       <chr>        <dbl>     <dbl>
#>  1          1101 Indeterminada          Localidad … Indete…         30        12
#>  2          1101 Río Seco               Localidad … Caserío        131       117
#>  3          1101 Cholito                Localidad … Asenta…          2         2
#>  4          1101 Complejo Aduana El Loa Localidad … Parcel…          0         1
#>  5          1101 Caleta San Marcos      Localidad … Asenta…        259       153
#>  6          1101 Caleta Chipana         Localidad … Caserío         84        57
#>  7          1101 Ike Ike                Localidad … Asenta…         29        11
#>  8          1101 Indeterminada          Localidad … Indete…         11         7
#>  9          1101 Piedra Polo            Localidad … Asenta…          5         7
#> 10          1101 Altos de Río Seco      Localidad … Caserío         14        13
#> # ℹ 29,246 more rows
```
…
